{
  "id": 93,
  "iid": 12,
  "project_id": 5,
  "title": "Incidunt et rerum ea expedita iure quibusdam.",
  "description": "Et cumque architecto sed aut ipsam.",
  "state": "opened",
  "created_at": "2016-04-05T21:41:45.217Z",
  "updated_at": "2016-04-07T13:02:37.905Z",
  "labels": [],
  "upvotes": 4,
  "downvotes": 0,
  "merge_requests_count": 0,
  "milestone": null,
  "assignee": {
    "name": "Edwardo Grady",
    "username": "keyon",
    "id": 21,
    "state": "active",
    "avatar_url": "http://www.gravatar.com/avatar/3e6f06a86cf27fa8b56f3f74f7615987?s=80&d=identicon",
    "web_url": "https://gitlab.example.com/keyon"
  },
  "type" : "ISSUE",
  "closed_at": null,
  "closed_by": null,
  "author": {
    "name": "Vivian Hermann",
    "username": "orville",
    "id": 11,
    "state": "active",
    "avatar_url": "http://www.gravatar.com/avatar/5224fd70153710e92fb8bcf79ac29d67?s=80&d=identicon",
    "web_url": "https://gitlab.example.com/orville"
  },
  "subscribed": false,
  "due_date": null,
  "web_url": "http://gitlab.example.com/my-group/my-project/issues/12",
  "references": {
    "short": "#12",
    "relative": "#12",
    "full": "my-group/my-project#12"
  },
  "confidential": false,
  "discussion_locked": false,
  "issue_type": "issue",
  "task_completion_status":{
     "count":0,
     "completed_count":0
  }
}
