{
    "id": 23,
    "created_at": "2020-11-13T00:06:18.084Z",
    "filename": "file.png",
    "file_path": "/uploads/-/system/issuable_metric_image/file/23/file.png",
    "url": "http://example.com"
}
