[
  {
    "id": "6a9c1750b37d513a43987b574953fceb50b03ce7",
    "individual_note": false,
    "notes": [
      {
        "id": 1126,
        "type": "DiscussionNote",
        "body": "discussion text",
        "attachment": null,
        "author": {
          "id": 1,
          "name": "root",
          "username": "root",
          "state": "active",
          "avatar_url": "https://www.gravatar.com/avatar/00afb8fb6ab07c3ee3e9c1f38777e2f4?s=80&d=identicon",
          "web_url": "http://localhost:3000/root"
        },
        "created_at": "2018-03-03T21:54:39.668Z",
        "updated_at": "2018-03-03T21:54:39.668Z",
        "system": false,
        "noteable_id": 3,
        "noteable_type": "Commit",
        "noteable_iid": null,
        "resolvable": false
      },
      {
        "id": 1129,
        "type": "DiscussionNote",
        "body": "reply to the discussion",
        "attachment": null,
        "author": {
          "id": 1,
          "name": "root",
          "username": "root",
          "state": "active",
          "avatar_url": "https://www.gravatar.com/avatar/00afb8fb6ab07c3ee3e9c1f38777e2f4?s=80&d=identicon",
          "web_url": "http://localhost:3000/root"
        },
        "created_at": "2018-03-04T13:38:02.127Z",
        "updated_at": "2018-03-04T13:38:02.127Z",
        "system": false,
        "noteable_id": 3,
        "noteable_type": "Commit",
        "noteable_iid": null,
        "resolvable": false
      }
    ]
  },
  {
    "id": "87805b7c09016a7058e91bdbe7b29d1f284a39e6",
    "individual_note": true,
    "notes": [
      {
        "id": 1128,
        "type": null,
        "body": "a single comment",
        "attachment": null,
        "author": {
          "id": 1,
          "name": "root",
          "username": "root",
          "state": "active",
          "avatar_url": "https://www.gravatar.com/avatar/00afb8fb6ab07c3ee3e9c1f38777e2f4?s=80&d=identicon",
          "web_url": "http://localhost:3000/root"
        },
        "created_at": "2018-03-04T09:17:22.52Z",
        "updated_at": "2018-03-04T09:17:22.52Z",
        "system": false,
        "noteable_id": 3,
        "noteable_type": "Commit",
        "noteable_iid": null,
        "resolvable": false
      }
    ]
  }
]
